Aula1/simulation/qsim/Aula1.msim.vcd
$comment
	File created using the following command:
		vcd file Aula1.msim.vcd -direction
$end
$date
	Wed Sep  1 23:16:02 2021
$end
$version
	ModelSim Version 2020.1
$end
$timescale
	1ps
$end

$scope module aula1_vhd_vec_tst $end
$var wire 1 ! CLOCK_50 $end
$var wire 1 " KEY [3] $end
$var wire 1 # KEY [2] $end
$var wire 1 $ KEY [1] $end
$var wire 1 % KEY [0] $end
$var wire 1 & LEDR [9] $end
$var wire 1 ' LEDR [8] $end
$var wire 1 ( LEDR [7] $end
$var wire 1 ) LEDR [6] $end
$var wire 1 * LEDR [5] $end
$var wire 1 + LEDR [4] $end
$var wire 1 , LEDR [3] $end
$var wire 1 - LEDR [2] $end
$var wire 1 . LEDR [1] $end
$var wire 1 / LEDR [0] $end
$var wire 1 0 SW [9] $end
$var wire 1 1 SW [8] $end
$var wire 1 2 SW [7] $end
$var wire 1 3 SW [6] $end
$var wire 1 4 SW [5] $end
$var wire 1 5 SW [4] $end
$var wire 1 6 SW [3] $end
$var wire 1 7 SW [2] $end
$var wire 1 8 SW [1] $end
$var wire 1 9 SW [0] $end

$scope module i1 $end
$var wire 1 : gnd $end
$var wire 1 ; vcc $end
$var wire 1 < unknown $end
$var wire 1 = devoe $end
$var wire 1 > devclrn $end
$var wire 1 ? devpor $end
$var wire 1 @ ww_devoe $end
$var wire 1 A ww_devclrn $end
$var wire 1 B ww_devpor $end
$var wire 1 C ww_CLOCK_50 $end
$var wire 1 D ww_KEY [3] $end
$var wire 1 E ww_KEY [2] $end
$var wire 1 F ww_KEY [1] $end
$var wire 1 G ww_KEY [0] $end
$var wire 1 H ww_SW [9] $end
$var wire 1 I ww_SW [8] $end
$var wire 1 J ww_SW [7] $end
$var wire 1 K ww_SW [6] $end
$var wire 1 L ww_SW [5] $end
$var wire 1 M ww_SW [4] $end
$var wire 1 N ww_SW [3] $end
$var wire 1 O ww_SW [2] $end
$var wire 1 P ww_SW [1] $end
$var wire 1 Q ww_SW [0] $end
$var wire 1 R ww_LEDR [9] $end
$var wire 1 S ww_LEDR [8] $end
$var wire 1 T ww_LEDR [7] $end
$var wire 1 U ww_LEDR [6] $end
$var wire 1 V ww_LEDR [5] $end
$var wire 1 W ww_LEDR [4] $end
$var wire 1 X ww_LEDR [3] $end
$var wire 1 Y ww_LEDR [2] $end
$var wire 1 Z ww_LEDR [1] $end
$var wire 1 [ ww_LEDR [0] $end
$var wire 1 \ \CLOCK_50~input_o\ $end
$var wire 1 ] \KEY[1]~input_o\ $end
$var wire 1 ^ \KEY[2]~input_o\ $end
$var wire 1 _ \SW[4]~input_o\ $end
$var wire 1 ` \SW[5]~input_o\ $end
$var wire 1 a \LEDR[0]~output_o\ $end
$var wire 1 b \LEDR[1]~output_o\ $end
$var wire 1 c \LEDR[2]~output_o\ $end
$var wire 1 d \LEDR[3]~output_o\ $end
$var wire 1 e \LEDR[4]~output_o\ $end
$var wire 1 f \LEDR[5]~output_o\ $end
$var wire 1 g \LEDR[6]~output_o\ $end
$var wire 1 h \LEDR[7]~output_o\ $end
$var wire 1 i \LEDR[8]~output_o\ $end
$var wire 1 j \LEDR[9]~output_o\ $end
$var wire 1 k \KEY[0]~input_o\ $end
$var wire 1 l \ROM1|memROM~5_combout\ $end
$var wire 1 m \KEY[3]~input_o\ $end
$var wire 1 n \ROM1|memROM~4_combout\ $end
$var wire 1 o \ROM1|memROM~3_combout\ $end
$var wire 1 p \SW[6]~input_o\ $end
$var wire 1 q \ULA1|Add0~18_cout\ $end
$var wire 1 r \ULA1|Add0~1_sumout\ $end
$var wire 1 s \SW[0]~input_o\ $end
$var wire 1 t \ROM1|memROM~0_combout\ $end
$var wire 1 u \ROM1|memROM~2_combout\ $end
$var wire 1 v \ROM1|memROM~1_combout\ $end
$var wire 1 w \SW[7]~input_o\ $end
$var wire 1 x \ULA1|Add0~2\ $end
$var wire 1 y \ULA1|Add0~5_sumout\ $end
$var wire 1 z \SW[1]~input_o\ $end
$var wire 1 { \SW[8]~input_o\ $end
$var wire 1 | \ULA1|Add0~6\ $end
$var wire 1 } \ULA1|Add0~9_sumout\ $end
$var wire 1 ~ \SW[2]~input_o\ $end
$var wire 1 !! \SW[9]~input_o\ $end
$var wire 1 "! \ULA1|Add0~10\ $end
$var wire 1 #! \ULA1|Add0~13_sumout\ $end
$var wire 1 $! \SW[3]~input_o\ $end
$var wire 1 %! \REG_MEF|DOUT\ [3] $end
$var wire 1 &! \REG_MEF|DOUT\ [2] $end
$var wire 1 '! \REG_MEF|DOUT\ [1] $end
$var wire 1 (! \REG_MEF|DOUT\ [0] $end
$var wire 1 )! \REG1|DOUT\ [3] $end
$var wire 1 *! \REG1|DOUT\ [2] $end
$var wire 1 +! \REG1|DOUT\ [1] $end
$var wire 1 ,! \REG1|DOUT\ [0] $end
$var wire 1 -! \ALT_INV_SW[9]~input_o\ $end
$var wire 1 .! \ALT_INV_SW[8]~input_o\ $end
$var wire 1 /! \ALT_INV_SW[7]~input_o\ $end
$var wire 1 0! \ALT_INV_SW[6]~input_o\ $end
$var wire 1 1! \ROM1|ALT_INV_memROM~2_combout\ $end
$var wire 1 2! \ROM1|ALT_INV_memROM~0_combout\ $end
$var wire 1 3! \REG_MEF|ALT_INV_DOUT\ [2] $end
$var wire 1 4! \REG_MEF|ALT_INV_DOUT\ [1] $end
$var wire 1 5! \REG_MEF|ALT_INV_DOUT\ [0] $end
$var wire 1 6! \REG1|ALT_INV_DOUT\ [3] $end
$var wire 1 7! \REG1|ALT_INV_DOUT\ [2] $end
$var wire 1 8! \REG1|ALT_INV_DOUT\ [1] $end
$var wire 1 9! \REG1|ALT_INV_DOUT\ [0] $end
$upscope $end
$upscope $end
$enddefinitions $end
#0
$dumpvars
0!
0:
1;
x<
1=
1>
1?
1@
1A
1B
0C
0\
x]
x^
x_
x`
0a
0b
0c
0d
0e
0f
1g
1h
0i
1j
0k
1l
xm
0n
0o
1p
0q
1r
0s
1t
1u
0v
1w
0x
1y
0z
0{
0|
0}
0~
0!!
0"!
0#!
0$!
1-!
1.!
0/!
00!
01!
02!
x"
x#
x$
0%
00
01
12
13
x4
x5
06
07
08
09
1&
0'
1(
1)
0*
0+
0,
0-
0.
0/
xD
xE
xF
0G
0H
0I
1J
1K
xL
xM
0N
0O
0P
0Q
1R
0S
1T
1U
0V
0W
0X
0Y
0Z
0[
x%!
0&!
0'!
0(!
0)!
0*!
0+!
0,!
13!
14!
15!
16!
17!
18!
19!
$end
#10000
1%
1!
1G
1C
1\
1k
1(!
05!
0l
1n
0t
1v
12!
1i
0h
1S
0T
0(
1'
#20000
0%
0!
0G
0C
0\
0k
#30000
1%
1!
1G
1C
1\
1k
0(!
1'!
1,!
1+!
08!
09!
04!
15!
1l
0r
1x
0y
1|
1b
1a
1}
1y
1Z
1[
1/
1.
#40000
0%
0!
0G
0C
0\
0k
#50000
1%
1!
1G
1C
1\
1k
1(!
0,!
1*!
07!
19!
05!
0l
0n
1o
1r
0x
0}
1"!
1c
0a
1#!
0y
1Y
0[
0/
1-
#60000
0%
0!
0G
0C
0\
0k
#70000
1%
1!
11
02
03
1G
1C
0K
0J
1I
1{
0w
0p
1\
1k
10!
1/!
0.!
0(!
0'!
1&!
1,!
0+!
0*!
1)!
1}
1y
0|
0r
06!
17!
18!
09!
03!
14!
15!
1l
1q
1x
0}
0"!
1d
0c
0b
1a
0#!
0y
1|
1r
0g
1X
0Y
0Z
1[
1}
0U
1/
0.
0-
1,
0)
#80000
0%
0!
0G
0C
0\
0k
#90000
1%
1!
01
1G
1C
0I
0{
1\
1k
1.!
1(!
1*!
0)!
0}
1"!
16!
07!
05!
0l
0o
0u
0v
1}
11!
0d
1c
0X
1Y
1-
0,
0i
0j
0S
0R
0'
0&
#100000
0%
0!
0G
0C
0\
0k
#110000
1%
1!
1G
1C
1\
1k
0(!
0&!
13!
15!
1l
0q
0r
1t
1u
1y
0|
0}
1#!
01!
02!
1}
0"!
1r
0x
1g
0,!
0*!
0y
0#!
17!
19!
1U
1j
1h
1)
0r
0}
1R
1T
1(
1&
0c
0a
0Y
0[
0/
0-
#120000
0%
0!
0G
0C
0\
0k
#130000
1%
1!
1G
1C
1\
1k
1(!
05!
0l
1n
0t
1v
12!
1i
0h
1S
0T
0(
1'
#140000
0%
0!
0G
0C
0\
0k
#150000
1%
1!
1G
1C
1\
1k
0(!
1'!
04!
15!
1l
#160000
0%
0!
0G
0C
0\
0k
#170000
1%
1!
1G
1C
1\
1k
1(!
05!
0l
0n
1o
#180000
0%
0!
0G
0C
0\
0k
#190000
1%
1!
1G
1C
1\
1k
0(!
0'!
1&!
03!
14!
15!
1l
1q
1r
1y
1}
1#!
0r
1x
0g
0y
1|
0U
0)
0}
1"!
0#!
#200000
0%
0!
0G
0C
0\
0k
#210000
1%
1!
1G
1C
1\
1k
1(!
05!
0l
0o
0u
0v
11!
0i
0j
0S
0R
0'
0&
#220000
0%
0!
0G
0C
0\
0k
#230000
1%
1!
1G
1C
1\
1k
0(!
0&!
13!
15!
1l
0q
1r
0x
1t
1u
1y
0|
1}
0"!
1#!
01!
02!
0#!
0}
0y
0r
1g
1U
1j
1h
1)
1R
1T
1(
1&
#240000
0%
0!
0G
0C
0\
0k
#250000
1%
1!
1G
1C
1\
1k
1(!
05!
0l
1n
0t
1v
12!
1i
0h
1S
0T
0(
1'
#260000
0%
0!
0G
0C
0\
0k
#270000
1%
1!
1G
1C
1\
1k
0(!
1'!
04!
15!
1l
#280000
0%
0!
0G
0C
0\
0k
#290000
1%
1!
1G
1C
1\
1k
1(!
05!
0l
0n
1o
#300000
0%
0!
0G
0C
0\
0k
#310000
1%
1!
1G
1C
1\
1k
0(!
0'!
1&!
03!
14!
15!
1l
1q
1r
1y
1}
1#!
0r
1x
0g
0y
1|
0U
0)
0}
1"!
0#!
#320000
0%
0!
0G
0C
0\
0k
#330000
1%
1!
1G
1C
1\
1k
1(!
05!
0l
0o
0u
0v
11!
0i
0j
0S
0R
0'
0&
#340000
0%
0!
0G
0C
0\
0k
#350000
1%
1!
1G
1C
1\
1k
0(!
0&!
13!
15!
1l
0q
1r
0x
1t
1u
1y
0|
1}
0"!
1#!
01!
02!
0#!
0}
0y
0r
1g
1U
1j
1h
1)
1R
1T
1(
1&
#360000
0%
0!
0G
0C
0\
0k
#370000
1%
1!
1G
1C
1\
1k
1(!
05!
0l
1n
0t
1v
12!
1i
0h
1S
0T
0(
1'
#380000
0%
0!
0G
0C
0\
0k
#390000
1%
1!
1G
1C
1\
1k
0(!
1'!
04!
15!
1l
#400000
0%
0!
0G
0C
0\
0k
#410000
1%
1!
1G
1C
1\
1k
1(!
05!
0l
0n
1o
#420000
0%
0!
0G
0C
0\
0k
#430000
1%
1!
1G
1C
1\
1k
0(!
0'!
1&!
03!
14!
15!
1l
1q
1r
1y
1}
1#!
0r
1x
0g
0y
1|
0U
0)
0}
1"!
0#!
#440000
0%
0!
0G
0C
0\
0k
#450000
1%
1!
1G
1C
1\
1k
1(!
05!
0l
0o
0u
0v
11!
0i
0j
0S
0R
0'
0&
#460000
0%
0!
0G
0C
0\
0k
#470000
1%
1!
1G
1C
1\
1k
0(!
0&!
13!
15!
1l
0q
1r
0x
1t
1u
1y
0|
1}
0"!
1#!
01!
02!
0#!
0}
0y
0r
1g
1U
1j
1h
1)
1R
1T
1(
1&
#480000
0%
0!
0G
0C
0\
0k
#490000
1%
1!
1G
1C
1\
1k
1(!
05!
0l
1n
0t
1v
12!
1i
0h
1S
0T
0(
1'
#500000
0%
0!
0G
0C
0\
0k
#510000
1%
1!
1G
1C
1\
1k
0(!
1'!
04!
15!
1l
#520000
0%
0!
0G
0C
0\
0k
#530000
1%
1!
1G
1C
1\
1k
1(!
05!
0l
0n
1o
#540000
0%
0!
0G
0C
0\
0k
#550000
1%
1!
1G
1C
1\
1k
0(!
0'!
1&!
03!
14!
15!
1l
1q
1r
1y
1}
1#!
0r
1x
0g
0y
1|
0U
0)
0}
1"!
0#!
#560000
0%
0!
0G
0C
0\
0k
#570000
1%
1!
1G
1C
1\
1k
1(!
05!
0l
0o
0u
0v
11!
0i
0j
0S
0R
0'
0&
#580000
0%
0!
0G
0C
0\
0k
#590000
1%
1!
1G
1C
1\
1k
0(!
0&!
13!
15!
1l
0q
1r
0x
1t
1u
1y
0|
1}
0"!
1#!
01!
02!
0#!
0}
0y
0r
1g
1U
1j
1h
1)
1R
1T
1(
1&
#600000
0%
0!
0G
0C
0\
0k
#610000
1%
1!
1G
1C
1\
1k
1(!
05!
0l
1n
0t
1v
12!
1i
0h
1S
0T
0(
1'
#620000
0%
0!
0G
0C
0\
0k
#630000
1%
1!
1G
1C
1\
1k
0(!
1'!
04!
15!
1l
#640000
0%
0!
0G
0C
0\
0k
#650000
1%
1!
1G
1C
1\
1k
1(!
05!
0l
0n
1o
#660000
0%
0!
0G
0C
0\
0k
#670000
1%
1!
1G
1C
1\
1k
0(!
0'!
1&!
03!
14!
15!
1l
1q
1r
1y
1}
1#!
0r
1x
0g
0y
1|
0U
0)
0}
1"!
0#!
#680000
0%
0!
0G
0C
0\
0k
#690000
1%
1!
1G
1C
1\
1k
1(!
05!
0l
0o
0u
0v
11!
0i
0j
0S
0R
0'
0&
#700000
0%
0!
0G
0C
0\
0k
#710000
1%
1!
1G
1C
1\
1k
0(!
0&!
13!
15!
1l
0q
1r
0x
1t
1u
1y
0|
1}
0"!
1#!
01!
02!
0#!
0}
0y
0r
1g
1U
1j
1h
1)
1R
1T
1(
1&
#720000
0%
0!
0G
0C
0\
0k
#730000
1%
1!
1G
1C
1\
1k
1(!
05!
0l
1n
0t
1v
12!
1i
0h
1S
0T
0(
1'
#740000
0%
0!
0G
0C
0\
0k
#750000
1%
1!
1G
1C
1\
1k
0(!
1'!
04!
15!
1l
#760000
0%
0!
0G
0C
0\
0k
#770000
1%
1!
1G
1C
1\
1k
1(!
05!
0l
0n
1o
#780000
0%
0!
0G
0C
0\
0k
#790000
1%
1!
1G
1C
1\
1k
0(!
0'!
1&!
03!
14!
15!
1l
1q
1r
1y
1}
1#!
0r
1x
0g
0y
1|
0U
0)
0}
1"!
0#!
#800000
0%
0!
0G
0C
0\
0k
#810000
1%
1!
1G
1C
1\
1k
1(!
05!
0l
0o
0u
0v
11!
0i
0j
0S
0R
0'
0&
#820000
0%
0!
0G
0C
0\
0k
#830000
1%
1!
1G
1C
1\
1k
0(!
0&!
13!
15!
1l
0q
1r
0x
1t
1u
1y
0|
1}
0"!
1#!
01!
02!
0#!
0}
0y
0r
1g
1U
1j
1h
1)
1R
1T
1(
1&
#840000
0%
0!
0G
0C
0\
0k
#850000
1%
1!
1G
1C
1\
1k
1(!
05!
0l
1n
0t
1v
12!
1i
0h
1S
0T
0(
1'
#860000
0%
0!
0G
0C
0\
0k
#870000
1%
1!
1G
1C
1\
1k
0(!
1'!
04!
15!
1l
#880000
0%
0!
0G
0C
0\
0k
#890000
1%
1!
1G
1C
1\
1k
1(!
05!
0l
0n
1o
#900000
0%
0!
0G
0C
0\
0k
#910000
1%
1!
1G
1C
1\
1k
0(!
0'!
1&!
03!
14!
15!
1l
1q
1r
1y
1}
1#!
0r
1x
0g
0y
1|
0U
0)
0}
1"!
0#!
#920000
0%
0!
0G
0C
0\
0k
#930000
1%
1!
1G
1C
1\
1k
1(!
05!
0l
0o
0u
0v
11!
0i
0j
0S
0R
0'
0&
#940000
0%
0!
0G
0C
0\
0k
#950000
1%
1!
1G
1C
1\
1k
0(!
0&!
13!
15!
1l
0q
1r
0x
1t
1u
1y
0|
1}
0"!
1#!
01!
02!
0#!
0}
0y
0r
1g
1U
1j
1h
1)
1R
1T
1(
1&
#960000
0%
0!
0G
0C
0\
0k
#970000
1%
1!
1G
1C
1\
1k
1(!
05!
0l
1n
0t
1v
12!
1i
0h
1S
0T
0(
1'
#980000
0%
0!
0G
0C
0\
0k
#990000
1%
1!
1G
1C
1\
1k
0(!
1'!
04!
15!
1l
