Aula5/simulation/qsim/Aula5.msim.vcd
$comment
	File created using the following command:
		vcd file Aula5.msim.vcd -direction
$end
$date
	Mon Sep 13 18:16:45 2021
$end
$version
	ModelSim Version 2020.1
$end
$timescale
	1ps
$end

$scope module aula5_vhd_vec_tst $end
$var wire 1 ! CLOCK_50 $end
$var wire 1 " ENDERECO [8] $end
$var wire 1 # ENDERECO [7] $end
$var wire 1 $ ENDERECO [6] $end
$var wire 1 % ENDERECO [5] $end
$var wire 1 & ENDERECO [4] $end
$var wire 1 ' ENDERECO [3] $end
$var wire 1 ( ENDERECO [2] $end
$var wire 1 ) ENDERECO [1] $end
$var wire 1 * ENDERECO [0] $end
$var wire 1 + KEY [3] $end
$var wire 1 , KEY [2] $end
$var wire 1 - KEY [1] $end
$var wire 1 . KEY [0] $end
$var wire 1 / LEDR [9] $end
$var wire 1 0 LEDR [8] $end
$var wire 1 1 LEDR [7] $end
$var wire 1 2 LEDR [6] $end
$var wire 1 3 LEDR [5] $end
$var wire 1 4 LEDR [4] $end
$var wire 1 5 LEDR [3] $end
$var wire 1 6 LEDR [2] $end
$var wire 1 7 LEDR [1] $end
$var wire 1 8 LEDR [0] $end

$scope module i1 $end
$var wire 1 9 gnd $end
$var wire 1 : vcc $end
$var wire 1 ; unknown $end
$var wire 1 < devoe $end
$var wire 1 = devclrn $end
$var wire 1 > devpor $end
$var wire 1 ? ww_devoe $end
$var wire 1 @ ww_devclrn $end
$var wire 1 A ww_devpor $end
$var wire 1 B ww_CLOCK_50 $end
$var wire 1 C ww_KEY [3] $end
$var wire 1 D ww_KEY [2] $end
$var wire 1 E ww_KEY [1] $end
$var wire 1 F ww_KEY [0] $end
$var wire 1 G ww_LEDR [9] $end
$var wire 1 H ww_LEDR [8] $end
$var wire 1 I ww_LEDR [7] $end
$var wire 1 J ww_LEDR [6] $end
$var wire 1 K ww_LEDR [5] $end
$var wire 1 L ww_LEDR [4] $end
$var wire 1 M ww_LEDR [3] $end
$var wire 1 N ww_LEDR [2] $end
$var wire 1 O ww_LEDR [1] $end
$var wire 1 P ww_LEDR [0] $end
$var wire 1 Q ww_ENDERECO [8] $end
$var wire 1 R ww_ENDERECO [7] $end
$var wire 1 S ww_ENDERECO [6] $end
$var wire 1 T ww_ENDERECO [5] $end
$var wire 1 U ww_ENDERECO [4] $end
$var wire 1 V ww_ENDERECO [3] $end
$var wire 1 W ww_ENDERECO [2] $end
$var wire 1 X ww_ENDERECO [1] $end
$var wire 1 Y ww_ENDERECO [0] $end
$var wire 1 Z \CLOCK_50~input_o\ $end
$var wire 1 [ \KEY[1]~input_o\ $end
$var wire 1 \ \KEY[2]~input_o\ $end
$var wire 1 ] \KEY[3]~input_o\ $end
$var wire 1 ^ \LEDR[0]~output_o\ $end
$var wire 1 _ \LEDR[1]~output_o\ $end
$var wire 1 ` \LEDR[2]~output_o\ $end
$var wire 1 a \LEDR[3]~output_o\ $end
$var wire 1 b \LEDR[4]~output_o\ $end
$var wire 1 c \LEDR[5]~output_o\ $end
$var wire 1 d \LEDR[6]~output_o\ $end
$var wire 1 e \LEDR[7]~output_o\ $end
$var wire 1 f \LEDR[8]~output_o\ $end
$var wire 1 g \LEDR[9]~output_o\ $end
$var wire 1 h \ENDERECO[0]~output_o\ $end
$var wire 1 i \ENDERECO[1]~output_o\ $end
$var wire 1 j \ENDERECO[2]~output_o\ $end
$var wire 1 k \ENDERECO[3]~output_o\ $end
$var wire 1 l \ENDERECO[4]~output_o\ $end
$var wire 1 m \ENDERECO[5]~output_o\ $end
$var wire 1 n \ENDERECO[6]~output_o\ $end
$var wire 1 o \ENDERECO[7]~output_o\ $end
$var wire 1 p \ENDERECO[8]~output_o\ $end
$var wire 1 q \KEY[0]~input_o\ $end
$var wire 1 r \ROM1|memROM~3_combout\ $end
$var wire 1 s \ROM1|memROM~4_combout\ $end
$var wire 1 t \Decoder|Equal8~0_combout\ $end
$var wire 1 u \MUX2x1|saida_MUX[7]~4_combout\ $end
$var wire 1 v \MUX2x1|saida_MUX[4]~5_combout\ $end
$var wire 1 w \Decoder|Equal1~0_combout\ $end
$var wire 1 x \Decoder|output[4]~1_combout\ $end
$var wire 1 y \Decoder|Equal3~0_combout\ $end
$var wire 1 z \RAM1|process_0~0_combout\ $end
$var wire 1 { \RAM1|ram~161_combout\ $end
$var wire 1 | \RAM1|ram~21_q\ $end
$var wire 1 } \RAM1|ram~153_combout\ $end
$var wire 1 ~ \RAM1|ram~154_combout\ $end
$var wire 1 !! \MUX2x1|saida_MUX[3]~3_combout\ $end
$var wire 1 "! \Decoder|output[5]~2_combout\ $end
$var wire 1 #! \ROM1|memROM~17_combout\ $end
$var wire 1 $! \MUX2x1|saida_MUX[2]~2_combout\ $end
$var wire 1 %! \ROM1|memROM~16_combout\ $end
$var wire 1 &! \MUX2x1|saida_MUX[1]~1_combout\ $end
$var wire 1 '! \ROM1|memROM~5_combout\ $end
$var wire 1 (! \ROM1|memROM~15_combout\ $end
$var wire 1 )! \RAM1|ram~17_q\ $end
$var wire 1 *! \RAM1|ram~145_combout\ $end
$var wire 1 +! \RAM1|ram~146_combout\ $end
$var wire 1 ,! \ULA1|Add1~34_cout\ $end
$var wire 1 -! \ULA1|Add1~2\ $end
$var wire 1 .! \ULA1|Add1~5_sumout\ $end
$var wire 1 /! \RAM1|ram~18_q\ $end
$var wire 1 0! \RAM1|ram~147_combout\ $end
$var wire 1 1! \RAM1|ram~148_combout\ $end
$var wire 1 2! \ULA1|Add1~6\ $end
$var wire 1 3! \ULA1|Add1~9_sumout\ $end
$var wire 1 4! \RAM1|ram~19_q\ $end
$var wire 1 5! \RAM1|ram~149_combout\ $end
$var wire 1 6! \RAM1|ram~150_combout\ $end
$var wire 1 7! \ULA1|Add1~10\ $end
$var wire 1 8! \ULA1|Add1~13_sumout\ $end
$var wire 1 9! \RAM1|ram~20_q\ $end
$var wire 1 :! \RAM1|ram~151_combout\ $end
$var wire 1 ;! \RAM1|ram~152_combout\ $end
$var wire 1 <! \ULA1|Add1~14\ $end
$var wire 1 =! \ULA1|Add1~17_sumout\ $end
$var wire 1 >! \MUX2x1|saida_MUX[5]~6_combout\ $end
$var wire 1 ?! \RAM1|ram~22_q\ $end
$var wire 1 @! \RAM1|ram~155_combout\ $end
$var wire 1 A! \RAM1|ram~156_combout\ $end
$var wire 1 B! \ROM1|memROM~18_combout\ $end
$var wire 1 C! \ULA1|Add1~18\ $end
$var wire 1 D! \ULA1|Add1~21_sumout\ $end
$var wire 1 E! \MUX2x1|saida_MUX[6]~7_combout\ $end
$var wire 1 F! \RAM1|ram~23_q\ $end
$var wire 1 G! \RAM1|ram~157_combout\ $end
$var wire 1 H! \RAM1|ram~158_combout\ $end
$var wire 1 I! \ULA1|Add1~22\ $end
$var wire 1 J! \ULA1|Add1~25_sumout\ $end
$var wire 1 K! \MUX2x1|saida_MUX[7]~8_combout\ $end
$var wire 1 L! \RAM1|ram~24_q\ $end
$var wire 1 M! \RAM1|ram~159_combout\ $end
$var wire 1 N! \RAM1|ram~160_combout\ $end
$var wire 1 O! \ULA1|Add1~26\ $end
$var wire 1 P! \ULA1|Add1~29_sumout\ $end
$var wire 1 Q! \FLAG|DOUT~1_combout\ $end
$var wire 1 R! \ULA1|Add1~1_sumout\ $end
$var wire 1 S! \FLAG|DOUT~2_combout\ $end
$var wire 1 T! \FLAG|DOUT~0_combout\ $end
$var wire 1 U! \FLAG|DOUT~q\ $end
$var wire 1 V! \MUX4x1|saida_MUX[4]~4_combout\ $end
$var wire 1 W! \somaUm|Add0~2\ $end
$var wire 1 X! \somaUm|Add0~6\ $end
$var wire 1 Y! \somaUm|Add0~10\ $end
$var wire 1 Z! \somaUm|Add0~14\ $end
$var wire 1 [! \somaUm|Add0~18\ $end
$var wire 1 \! \somaUm|Add0~21_sumout\ $end
$var wire 1 ]! \MUX4x1|saida_MUX[5]~6_combout\ $end
$var wire 1 ^! \somaUm|Add0~22\ $end
$var wire 1 _! \somaUm|Add0~25_sumout\ $end
$var wire 1 `! \MUX4x1|saida_MUX[6]~7_combout\ $end
$var wire 1 a! \somaUm|Add0~26\ $end
$var wire 1 b! \somaUm|Add0~29_sumout\ $end
$var wire 1 c! \MUX4x1|saida_MUX[7]~8_combout\ $end
$var wire 1 d! \ROM1|memROM~11_combout\ $end
$var wire 1 e! \ROM1|memROM~12_combout\ $end
$var wire 1 f! \PC|DOUT[3]~1_combout\ $end
$var wire 1 g! \somaUm|Add0~13_sumout\ $end
$var wire 1 h! \MUX4x1|saida_MUX[3]~3_combout\ $end
$var wire 1 i! \ROM1|memROM~9_combout\ $end
$var wire 1 j! \ROM1|memROM~10_combout\ $end
$var wire 1 k! \somaUm|Add0~9_sumout\ $end
$var wire 1 l! \MUX4x1|saida_MUX[2]~2_combout\ $end
$var wire 1 m! \ROM1|memROM~7_combout\ $end
$var wire 1 n! \ROM1|memROM~8_combout\ $end
$var wire 1 o! \somaUm|Add0~5_sumout\ $end
$var wire 1 p! \MUX4x1|saida_MUX[1]~1_combout\ $end
$var wire 1 q! \ROM1|memROM~2_combout\ $end
$var wire 1 r! \Decoder|Equal9~0_combout\ $end
$var wire 1 s! \somaUm|Add0~17_sumout\ $end
$var wire 1 t! \MUX4x1|saida_MUX[4]~5_combout\ $end
$var wire 1 u! \ROM1|memROM~1_combout\ $end
$var wire 1 v! \ROM1|memROM~6_combout\ $end
$var wire 1 w! \somaUm|Add0~1_sumout\ $end
$var wire 1 x! \MUX4x1|saida_MUX[0]~0_combout\ $end
$var wire 1 y! \ROM1|memROM~0_combout\ $end
$var wire 1 z! \ROM1|memROM~13_combout\ $end
$var wire 1 {! \PC|DOUT[3]~0_combout\ $end
$var wire 1 |! \somaUm|Add0~30\ $end
$var wire 1 }! \somaUm|Add0~33_sumout\ $end
$var wire 1 ~! \ROM1|memROM~14_combout\ $end
$var wire 1 !" \MUX4x1|saida_MUX[8]~9_combout\ $end
$var wire 1 "" \Decoder|output[5]~0_combout\ $end
$var wire 1 #" \MUX2x1|saida_MUX[0]~0_combout\ $end
$var wire 1 $" \REG_RET|DOUT\ [8] $end
$var wire 1 %" \REG_RET|DOUT\ [7] $end
$var wire 1 &" \REG_RET|DOUT\ [6] $end
$var wire 1 '" \REG_RET|DOUT\ [5] $end
$var wire 1 (" \REG_RET|DOUT\ [4] $end
$var wire 1 )" \REG_RET|DOUT\ [3] $end
$var wire 1 *" \REG_RET|DOUT\ [2] $end
$var wire 1 +" \REG_RET|DOUT\ [1] $end
$var wire 1 ," \REG_RET|DOUT\ [0] $end
$var wire 1 -" \PC|DOUT\ [8] $end
$var wire 1 ." \PC|DOUT\ [7] $end
$var wire 1 /" \PC|DOUT\ [6] $end
$var wire 1 0" \PC|DOUT\ [5] $end
$var wire 1 1" \PC|DOUT\ [4] $end
$var wire 1 2" \PC|DOUT\ [3] $end
$var wire 1 3" \PC|DOUT\ [2] $end
$var wire 1 4" \PC|DOUT\ [1] $end
$var wire 1 5" \PC|DOUT\ [0] $end
$var wire 1 6" \REG1|DOUT\ [7] $end
$var wire 1 7" \REG1|DOUT\ [6] $end
$var wire 1 8" \REG1|DOUT\ [5] $end
$var wire 1 9" \REG1|DOUT\ [4] $end
$var wire 1 :" \REG1|DOUT\ [3] $end
$var wire 1 ;" \REG1|DOUT\ [2] $end
$var wire 1 <" \REG1|DOUT\ [1] $end
$var wire 1 =" \REG1|DOUT\ [0] $end
$var wire 1 >" \ROM1|ALT_INV_memROM~17_combout\ $end
$var wire 1 ?" \RAM1|ALT_INV_ram~160_combout\ $end
$var wire 1 @" \Decoder|ALT_INV_output[5]~2_combout\ $end
$var wire 1 A" \ROM1|ALT_INV_memROM~16_combout\ $end
$var wire 1 B" \ROM1|ALT_INV_memROM~15_combout\ $end
$var wire 1 C" \REG_RET|ALT_INV_DOUT\ [8] $end
$var wire 1 D" \REG_RET|ALT_INV_DOUT\ [7] $end
$var wire 1 E" \REG_RET|ALT_INV_DOUT\ [6] $end
$var wire 1 F" \REG_RET|ALT_INV_DOUT\ [5] $end
$var wire 1 G" \REG_RET|ALT_INV_DOUT\ [4] $end
$var wire 1 H" \REG_RET|ALT_INV_DOUT\ [3] $end
$var wire 1 I" \REG_RET|ALT_INV_DOUT\ [2] $end
$var wire 1 J" \REG_RET|ALT_INV_DOUT\ [1] $end
$var wire 1 K" \REG_RET|ALT_INV_DOUT\ [0] $end
$var wire 1 L" \Decoder|ALT_INV_Equal3~0_combout\ $end
$var wire 1 M" \PC|ALT_INV_DOUT[3]~1_combout\ $end
$var wire 1 N" \RAM1|ALT_INV_ram~159_combout\ $end
$var wire 1 O" \PC|ALT_INV_DOUT[3]~0_combout\ $end
$var wire 1 P" \FLAG|ALT_INV_DOUT~q\ $end
$var wire 1 Q" \RAM1|ALT_INV_ram~24_q\ $end
$var wire 1 R" \MUX4x1|ALT_INV_saida_MUX[4]~4_combout\ $end
$var wire 1 S" \ROM1|ALT_INV_memROM~14_combout\ $end
$var wire 1 T" \Decoder|ALT_INV_Equal8~0_combout\ $end
$var wire 1 U" \Decoder|ALT_INV_Equal9~0_combout\ $end
$var wire 1 V" \RAM1|ALT_INV_ram~158_combout\ $end
$var wire 1 W" \RAM1|ALT_INV_ram~157_combout\ $end
$var wire 1 X" \RAM1|ALT_INV_ram~23_q\ $end
$var wire 1 Y" \RAM1|ALT_INV_ram~156_combout\ $end
$var wire 1 Z" \RAM1|ALT_INV_ram~155_combout\ $end
$var wire 1 [" \RAM1|ALT_INV_ram~22_q\ $end
$var wire 1 \" \RAM1|ALT_INV_ram~154_combout\ $end
$var wire 1 ]" \RAM1|ALT_INV_ram~153_combout\ $end
$var wire 1 ^" \RAM1|ALT_INV_ram~21_q\ $end
$var wire 1 _" \MUX2x1|ALT_INV_saida_MUX[7]~4_combout\ $end
$var wire 1 `" \RAM1|ALT_INV_ram~152_combout\ $end
$var wire 1 a" \RAM1|ALT_INV_ram~151_combout\ $end
$var wire 1 b" \RAM1|ALT_INV_ram~20_q\ $end
$var wire 1 c" \RAM1|ALT_INV_ram~150_combout\ $end
$var wire 1 d" \RAM1|ALT_INV_ram~149_combout\ $end
$var wire 1 e" \RAM1|ALT_INV_ram~19_q\ $end
$var wire 1 f" \RAM1|ALT_INV_ram~148_combout\ $end
$var wire 1 g" \RAM1|ALT_INV_ram~147_combout\ $end
$var wire 1 h" \RAM1|ALT_INV_ram~18_q\ $end
$var wire 1 i" \ROM1|ALT_INV_memROM~13_combout\ $end
$var wire 1 j" \RAM1|ALT_INV_ram~146_combout\ $end
$var wire 1 k" \ROM1|ALT_INV_memROM~12_combout\ $end
$var wire 1 l" \ROM1|ALT_INV_memROM~11_combout\ $end
$var wire 1 m" \ROM1|ALT_INV_memROM~10_combout\ $end
$var wire 1 n" \ROM1|ALT_INV_memROM~9_combout\ $end
$var wire 1 o" \RAM1|ALT_INV_ram~145_combout\ $end
$var wire 1 p" \ROM1|ALT_INV_memROM~8_combout\ $end
$var wire 1 q" \ROM1|ALT_INV_memROM~7_combout\ $end
$var wire 1 r" \RAM1|ALT_INV_ram~17_q\ $end
$var wire 1 s" \ROM1|ALT_INV_memROM~6_combout\ $end
$var wire 1 t" \ROM1|ALT_INV_memROM~5_combout\ $end
$var wire 1 u" \Decoder|ALT_INV_output[5]~0_combout\ $end
$var wire 1 v" \ROM1|ALT_INV_memROM~4_combout\ $end
$var wire 1 w" \ROM1|ALT_INV_memROM~3_combout\ $end
$var wire 1 x" \ROM1|ALT_INV_memROM~2_combout\ $end
$var wire 1 y" \ROM1|ALT_INV_memROM~1_combout\ $end
$var wire 1 z" \ROM1|ALT_INV_memROM~0_combout\ $end
$var wire 1 {" \PC|ALT_INV_DOUT\ [8] $end
$var wire 1 |" \PC|ALT_INV_DOUT\ [7] $end
$var wire 1 }" \PC|ALT_INV_DOUT\ [6] $end
$var wire 1 ~" \PC|ALT_INV_DOUT\ [5] $end
$var wire 1 !# \PC|ALT_INV_DOUT\ [4] $end
$var wire 1 "# \PC|ALT_INV_DOUT\ [3] $end
$var wire 1 ## \PC|ALT_INV_DOUT\ [2] $end
$var wire 1 $# \PC|ALT_INV_DOUT\ [1] $end
$var wire 1 %# \PC|ALT_INV_DOUT\ [0] $end
$var wire 1 &# \somaUm|ALT_INV_Add0~33_sumout\ $end
$var wire 1 '# \somaUm|ALT_INV_Add0~29_sumout\ $end
$var wire 1 (# \somaUm|ALT_INV_Add0~25_sumout\ $end
$var wire 1 )# \somaUm|ALT_INV_Add0~21_sumout\ $end
$var wire 1 *# \somaUm|ALT_INV_Add0~17_sumout\ $end
$var wire 1 +# \somaUm|ALT_INV_Add0~13_sumout\ $end
$var wire 1 ,# \somaUm|ALT_INV_Add0~9_sumout\ $end
$var wire 1 -# \somaUm|ALT_INV_Add0~5_sumout\ $end
$var wire 1 .# \somaUm|ALT_INV_Add0~1_sumout\ $end
$var wire 1 /# \ULA1|ALT_INV_Add1~29_sumout\ $end
$var wire 1 0# \ULA1|ALT_INV_Add1~25_sumout\ $end
$var wire 1 1# \ULA1|ALT_INV_Add1~21_sumout\ $end
$var wire 1 2# \ULA1|ALT_INV_Add1~17_sumout\ $end
$var wire 1 3# \ULA1|ALT_INV_Add1~13_sumout\ $end
$var wire 1 4# \ULA1|ALT_INV_Add1~9_sumout\ $end
$var wire 1 5# \ULA1|ALT_INV_Add1~5_sumout\ $end
$var wire 1 6# \ULA1|ALT_INV_Add1~1_sumout\ $end
$var wire 1 7# \REG1|ALT_INV_DOUT\ [7] $end
$var wire 1 8# \REG1|ALT_INV_DOUT\ [6] $end
$var wire 1 9# \REG1|ALT_INV_DOUT\ [5] $end
$var wire 1 :# \REG1|ALT_INV_DOUT\ [4] $end
$var wire 1 ;# \REG1|ALT_INV_DOUT\ [3] $end
$var wire 1 <# \REG1|ALT_INV_DOUT\ [2] $end
$var wire 1 =# \REG1|ALT_INV_DOUT\ [1] $end
$var wire 1 ># \REG1|ALT_INV_DOUT\ [0] $end
$var wire 1 ?# \RAM1|ALT_INV_process_0~0_combout\ $end
$var wire 1 @# \FLAG|ALT_INV_DOUT~2_combout\ $end
$var wire 1 A# \FLAG|ALT_INV_DOUT~1_combout\ $end
$var wire 1 B# \ROM1|ALT_INV_memROM~18_combout\ $end
$upscope $end
$upscope $end
$enddefinitions $end
#0
$dumpvars
0!
09
1:
x;
1<
1=
1>
1?
1@
1A
0B
0Z
0[
0\
0]
0^
0_
0`
0a
0b
0c
0d
0e
0f
0g
0h
0i
0j
0k
0l
0m
0n
0o
0p
0q
0r
0s
1t
0u
0v
1w
0x
0y
0z
0{
0|
0}
0~
0!!
1"!
1#!
0$!
1%!
0&!
0'!
0(!
0)!
0*!
0+!
1,!
1-!
0.!
0/!
00!
01!
12!
03!
04!
05!
06!
17!
08!
09!
0:!
0;!
1<!
0=!
0>!
0?!
0@!
0A!
1B!
1C!
0D!
0E!
0F!
0G!
0H!
1I!
0J!
0K!
0L!
0M!
0N!
1O!
0P!
0Q!
0R!
0S!
0T!
0U!
0V!
0W!
0X!
0Y!
0Z!
0[!
0\!
0]!
0^!
0_!
0`!
0a!
0b!
0c!
1d!
1e!
1f!
0g!
1h!
1i!
1j!
0k!
1l!
1m!
1n!
0o!
1p!
1q!
0r!
0s!
0t!
1u!
0v!
1w!
0x!
1y!
1z!
1{!
0|!
0}!
0~!
0!"
0""
0#"
0>"
1?"
0@"
0A"
1B"
1L"
0M"
1N"
0O"
1P"
1Q"
1R"
1S"
0T"
1U"
1V"
1W"
1X"
1Y"
1Z"
1["
1\"
1]"
1^"
1_"
1`"
1a"
1b"
1c"
1d"
1e"
1f"
1g"
1h"
0i"
1j"
0k"
0l"
0m"
0n"
1o"
0p"
0q"
1r"
1s"
1t"
1u"
1v"
1w"
0x"
0y"
0z"
1&#
1'#
1(#
1)#
1*#
1+#
1,#
1-#
0.#
1/#
10#
11#
12#
13#
14#
15#
16#
1?#
1@#
1A#
0B#
0+
0,
0-
0.
0C
0D
0E
0F
0G
0H
0I
0J
0K
0L
0M
0N
0O
0P
0Q
0R
0S
0T
0U
0V
0W
0X
0Y
0$"
0%"
0&"
0'"
0("
0)"
0*"
0+"
0,"
0-"
0."
0/"
00"
01"
02"
03"
04"
05"
06"
07"
08"
09"
0:"
0;"
0<"
0="
1C"
1D"
1E"
1F"
1G"
1H"
1I"
1J"
1K"
1{"
1|"
1}"
1~"
1!#
1"#
1##
1$#
1%#
17#
18#
19#
1:#
1;#
1<#
1=#
1>#
0"
0#
0$
0%
0&
0'
0(
0)
0*
0/
00
01
02
03
04
05
06
07
08
$end
#10000
1!
1.
1B
1F
1q
1Z
12"
13"
14"
1,"
0K"
0$#
0##
0"#
1g!
1k!
1o!
0e!
0i!
0m!
0q!
0y!
1z"
1x"
1q"
1n"
1k"
0-#
0,#
0+#
1i
1j
1k
0h!
0#!
0j!
0%!
0n!
1u
1x
0"!
0f!
0{!
0t
0B!
0z!
1X
1W
1V
1i"
1B#
1T"
1O"
1M"
1@"
0_"
1p"
1A"
1m"
1>"
1)
1(
1'
1h!
1x!
0x
#20000
0!
0.
1-
0B
0F
1E
1[
0q
0Z
#30000
1!
1.
1B
1F
1q
1Z
15"
0%#
1s
0w!
1W!
1y!
0z"
1.#
0v"
1h
0o!
1X!
0u
0w
1"!
0x!
1B!
1z!
1-#
1Y
0k!
1Y!
0i"
0B#
0@"
1_"
1*
0p!
1,#
1w
1V!
1r!
1{!
0g!
1Z!
0l!
1+#
0O"
0U"
0R"
1s!
1x!
0h!
0*#
#40000
0!
0.
0-
1,
0B
0F
0E
1D
1\
0[
0q
0Z
#50000
1!
1.
1B
1F
1q
1Z
02"
03"
04"
1$#
1##
1"#
1g!
0Z!
1k!
0Y!
1r
1'!
1o!
0X!
1i!
0y!
1z"
0n"
0-#
0t"
0w"
0,#
0+#
0i
0j
0k
0k!
0g!
0s!
1u
0"!
0V!
0r!
0{!
1(!
1v!
1#!
1j!
0B!
0z!
1*#
1+#
1,#
0X
0W
0V
1i"
1B#
0m"
0>"
0s"
0B"
1O"
1U"
1R"
1@"
0_"
0)
0(
0'
1p!
0x!
1V!
1f!
1{!
0O"
0M"
0R"
1l!
0p!
1x!
#60000
0!
0.
1-
0B
0F
1E
1[
0q
0Z
#70000
1!
1.
1B
1F
1q
1Z
13"
0##
0s
1k!
0,#
1v"
1j
0u
1x
1y
1"!
0V!
0f!
0{!
1""
1W
0u"
1O"
1M"
1R"
0@"
0L"
1_"
1(
1Q!
1p!
0x!
1$!
1R!
0-!
13!
07!
1#"
04#
06#
0A#
18!
0<!
1.!
02!
05#
03#
03!
1=!
0C!
02#
14#
1D!
0I!
01#
1J!
0O!
00#
1P!
0/#
#80000
0!
0.
0-
0,
1+
0B
0F
0E
0D
1C
1]
0\
0[
0q
0Z
#90000
1!
1.
1B
1F
1q
1Z
19"
1<"
1:"
18"
17"
16"
14"
05"
1="
0>#
1%#
0$#
07#
08#
09#
0;#
0=#
0:#
0=!
1C!
0.!
12!
08!
1<!
0D!
1I!
0J!
1O!
0P!
0o!
1X!
1z
0'!
1w!
0W!
0i!
1q!
1~!
0R!
1-!
16#
0S"
0x"
1n"
0.#
1t"
0?#
1-#
1/#
10#
11#
13#
15#
12#
1^
0h
1i
1e
1d
1c
1a
1_
1b
1.!
1o!
0X!
0k!
1Y!
1P!
1J!
1=!
13!
1D!
0p!
0(!
0v!
1x!
0#!
0j!
1u
0x
0"!
0Q!
0""
1S!
01#
04#
02#
00#
0/#
1,#
0-#
05#
1P
0Y
1X
1I
1J
1K
1M
1O
1L
1g!
1k!
0Y!
0@#
1u"
1A#
1@"
0_"
1m"
1>"
1s"
1B"
18
17
15
14
13
12
11
0*
1)
1p!
0l!
0S!
0,#
0+#
1{
0$!
1R!
03!
17!
0#"
1T!
0g!
1@#
1h!
1l!
1+#
14#
06#
0T!
18!
0h!
03#
#100000
0!
0.
1-
0B
0F
1E
1[
0q
0Z
#110000
1!
1.
1B
1F
1q
1Z
1|
1)!
1/!
19!
1?!
1F!
1L!
15"
0%#
0Q"
0X"
0["
0b"
0h"
0r"
0^"
1}
1*!
10!
1:!
1@!
1G!
1M!
0r
0z
0w!
1W!
0q!
1y!
0~!
1S"
0z"
1x"
1.#
1?#
1w"
0N"
0W"
0Z"
0a"
0g"
0o"
0]"
1h
0o!
1X!
1~
1+!
11!
1;!
1A!
1H!
1N!
0{
0x!
1Q!
0y
1B!
1z!
1-#
1Y
0k!
1Y!
0i"
0B#
1L"
0A#
0?"
0V"
0Y"
0`"
0f"
0j"
0\"
1*
0p!
1,#
0R!
1#"
1&!
0.!
1!!
0Q!
0D!
0J!
0P!
1v
1x
08!
0=!
1>!
1E!
1K!
1g!
0l!
0+#
12#
13#
1/#
10#
11#
1A#
15#
16#
1h!
#120000
0!
0.
0-
1,
0B
0F
0E
1D
1\
0[
0q
0Z
#130000
1!
1.
1B
1F
1q
1Z
09"
0<"
0:"
08"
07"
06"
12"
03"
04"
05"
0="
1>#
1%#
1$#
1##
0"#
17#
18#
19#
1;#
1=#
1:#
1=!
0C!
1.!
02!
18!
0<!
1D!
0I!
1J!
0O!
1P!
0g!
1Z!
1k!
0Y!
1o!
0X!
1r
1s
1w!
0W!
1m!
0y!
1R!
0-!
06#
1z"
0q"
0.#
0v"
0w"
0-#
0,#
1+#
0/#
00#
01#
03#
05#
02#
0^
0h
0i
0j
1k
0e
0d
0c
0a
0_
0b
0.!
0o!
0k!
1g!
0Z!
1s!
0P!
0J!
0=!
13!
07!
0D!
0h!
1l!
1p!
0x
1x!
1%!
1n!
0B!
0z!
11#
04#
12#
10#
1/#
0*#
0+#
1,#
1-#
15#
0P
0Y
0X
0W
1V
0I
0J
0K
0M
0O
0L
08!
0s!
1i"
1B#
0p"
0A"
08
07
05
04
03
02
01
0*
0)
0(
1'
0p!
0l!
1h!
1t!
1*#
13#
0}
0*!
01!
0;!
0A!
0G!
0N!
1V!
1f!
1{!
0t!
0O"
0M"
0R"
1?"
1W"
1Y"
1`"
1f"
1o"
1]"
0~
0+!
0&!
1.!
0!!
18!
0>!
1D!
0H!
0K!
1P!
0h!
1p!
0x!
0/#
1V"
01#
03#
05#
1j"
1\"
0v
1=!
0R!
1-!
0#"
0E!
1J!
00#
16#
02#
0.!
12!
15#
03!
17!
14#
08!
1<!
13#
0=!
1C!
12#
0D!
1I!
11#
0J!
1O!
10#
0P!
1/#
#140000
0!
0.
1-
0B
0F
1E
1[
0q
0Z
#150000
1!
1.
1B
1F
1q
1Z
02"
14"
0$#
1"#
0g!
1'!
1o!
1e!
0m!
1q!
0x"
1q"
0k"
0-#
0t"
1+#
1i
0k
1(!
1v!
00!
0:!
0@!
0M!
1h!
0%!
0n!
0V!
0f!
0{!
1X
0V
1O"
1M"
1R"
1p"
1A"
1N"
1Z"
1a"
1g"
0s"
0B"
1)
0'
0h!
1x!
#160000
0!
0.
0-
0,
0+
0B
0F
0E
0D
0C
0]
0\
0[
0q
0Z
#170000
1!
1.
1B
1F
1q
1Z
15"
0%#
0r
0s
0'!
0w!
1W!
0e!
0q!
1x"
1k"
1.#
1t"
1v"
1w"
1h
0o!
1X!
0(!
0v!
0x!
10!
1:!
1@!
1M!
1-#
1Y
1k!
0N"
0Z"
0a"
0g"
1s"
1B"
1*
0p!
0,#
1}
1*!
1G!
11!
1;!
1A!
1N!
1l!
0?"
0Y"
0`"
0f"
0W"
0o"
0]"
1~
1+!
1H!
1&!
1.!
02!
1!!
18!
0<!
1>!
1D!
0I!
1K!
1P!
0/#
01#
03#
05#
0V"
0j"
0\"
1J!
0O!
1=!
0C!
13!
07!
1v
0=!
1R!
0-!
1#"
1E!
0J!
04#
02#
00#
08!
0D!
0P!
10#
06#
12#
0.!
1/#
11#
13#
15#
#180000
0!
0.
1-
0B
0F
1E
1[
0q
0Z
#190000
1!
1.
1B
1F
1q
1Z
13"
04"
05"
1%#
1$#
0##
0k!
1Y!
1o!
0X!
1w!
0W!
0.#
0-#
1,#
0h
0i
1j
0o!
1k!
0Y!
1g!
0l!
1p!
1x!
0+#
0,#
1-#
0Y
0X
1W
0g!
0*
0)
1(
0p!
1l!
1h!
1+#
0h!
#200000
0!
0.
0-
1,
0B
0F
0E
1D
1\
0[
0q
0Z
#210000
1!
1.
1B
1F
1q
1Z
15"
0%#
1r
1'!
0w!
1W!
1i!
0n"
1.#
0t"
0w"
1h
1o!
0u
1x
1y
1"!
1""
1(!
1v!
0x!
1#!
1j!
0-#
1Y
0m"
0>"
0s"
0B"
0u"
0@"
0L"
1_"
1*
1p!
0v
1=!
0>!
1D!
0E!
1J!
0K!
1P!
1Q!
18!
0!!
0&!
1.!
0}
0*!
01!
0;!
0A!
0G!
0N!
03!
0~
1$!
0+!
00!
0:!
0@!
0H!
0M!
1N"
1V"
1Z"
1a"
1g"
1j"
1\"
14#
1?"
1W"
1Y"
1`"
1f"
1o"
1]"
05#
03#
0A#
0/#
00#
01#
02#
#220000
0!
0.
1-
0B
0F
1E
1[
0q
0Z
